…
## FY1990データの読み込み（２）

変数名が日本語の場合、コードが書きづらくなり、バグ (bug) の原因になります。
最初から英語表記にするのが合理的ですが、R環境内で名前を変換することは難しくないです。
とりあえず `d19` の内容を確認しましょう。

.pull-left[

```r
d19 # FY1990 データの内容
```

```
## # A tibble: 23 x 3
##    調査海域  海藻  海草
##    <chr>    <dbl> <dbl>
##  1 東部        55    14
##  2 東部       128    62
##  3 東部        86     0
##  4 東部        87     8
##  5 東部       214    54
##  6 東部       140    57
##  7 中部        30    45
##  8 中部         5   623
##  9 中部       460   886
## 10 中部        51   180
## # … with 13 more rows
```
…
`seaweed` に `seaweed`、`seagrass` に `seagrass` を渡します。
さらに、`seaweed` と `seagrass` のラベルを `type` 変数に書き込みます。
]

.panel[.panel-name[Output]
.pull-left[

```r
d20　# FY2018 データ
```

```
## # A tibble: 54 x 3
##    type    name  value
##    <chr>   <chr> <dbl>
##  1 seaweed 東部     14
##  2 seaweed 中部     62
##  3 seaweed 西部    108
##  4 seaweed 東部     93
##  5 seaweed 中部    838
##  6 seaweed 西部      0
##  7 seaweed 東部     12
##  8 seaweed 中部    933
##  9 seaweed 西部      0
## 10 seaweed 東部      8
## # … with 44 more rows
```
…
]
.pull-right[
ネストされている変数をアンネストすると、内容が表にでてきます。

```r
d20 = d20 |> unnest(c(seaweed, seagrass))
d20
```

```
## # A tibble: 27 x 3
##    name  seaweed seagrass
##    <chr>   <dbl>    <dbl>
##  1 東部       14       71
##  2 東部       93      145
##  3 東部       12       94
##  4 東部        8       82
##  5 東部      444       49
##  6 東部       85      100
##  7 東部       NA       NA
##  8 東部       NA       NA
##  9 東部       NA       NA
## 10 中部       62       63
## # … with 17 more rows
```
…
さらに、`name` を `site` (調査海域) に変更します。

```r
d20 = d20 |> rename(site = name)
```

最後に、`d20` の `NA` データを外します。

```r
d20 = d20 |> drop_na() # NA を外す
d20
```

```
## # A tibble: 23 x 3
##    site  seaweed seagrass
##    <chr>   <dbl>    <dbl>
##  1 東部       14       71
##  2 東部       93      145
##  3 東部       12       94
##  4 東部        8       82
##  5 東部      444       49
##  6 東部       85      100
##  7 中部       62       63
##  8 中部      838        5
##  9 中部      933      674
## 10 中部      193       69
## # … with 13 more rows
```

---

## データがにてきた

これで、`d20` と `d19` は同じ構造になりました。

.pull-left[

```r
d19
```

```
## # A tibble: 23 x 3
##    調査海域  海藻  海草
##    <chr>    <dbl> <dbl>
##  1 東部        55    14
##  2 東部       128    62
##  3 東部        86     0
##  4 東部        87     8
##  5 東部       214    54
##  6 東部       140    57
##  7 中部        30    45
##  8 中部         5   623
##  9 中部       460   886
## 10 中部        51   180
## # … with 13 more rows
```

]

.pull-right[

```r
d20
```

```
## # A tibble: 23 x 3
##    site  seaweed seagrass
##    <chr>   <dbl>    <dbl>
##  1 東部       14       71
##  2 東部       93      145
##  3 東部       12       94
##  4 東部        8       82
##  5 東部      444       49
##  6 東部       85      100
##  7 中部       62       63
##  8 中部      838        5
##  9 中部      933      674
## 10 中部      193       69
## # … with 13 more rows
```
…
