R の基礎
…
---

## `read_csv()`の使い方

`read_csv()`

```r
rabbits = read_csv("Assignment_06_Dataset01.csv")
rabbits
```

```
## # A tibble: 37 x 2
##    host    scutum.width
##    <chr>          <dbl>
##  1 Rabbit1          380
##  2 Rabbit1          376
##  3 Rabbit1          360
##  4 Rabbit1          368
##  5 Rabbit1          372
##  6 Rabbit1          366
##  7 Rabbit1          374
##  8 Rabbit1          382
##  9 Rabbit2          350
## 10 Rabbit2          356
## # … with 27 more rows
```
…
---

## `read_excel()` の使用例（２）

先程のように読み込むと、不都合な変数名に変換されました。次は、変数名も指定して読み込みます。

```r
filename = "Table 2.xlsx"
col_names = c("month", "temperature1", "sd1", "empty","temperature2", "sd2")
exceldata = read_excel(filename, sheet = 1, skip = 2, col_name = col_names)
exceldata |> print(n = 4)
```

```
## # A tibble: 12 x 6
##   month temperature1   sd1 empty temperature2   sd2
##   <chr>        <dbl> <dbl> <lgl>        <dbl> <dbl>
## 1 Jan.          21.1 0.446 NA            16.5 0.428
## 2 Feb.          21.3 0.441 NA            16.3 0.483
## 3 Mar.          21.5 0.470 NA            16.5 0.579
## 4 Apr.          21.8 0.554 NA            18.3 1.27 
## # … with 8 more rows
```
…
---

## 列の加工

.panelset[
.panel[.panel-name[mutate()]

```r
iris |> as_tibble() |> mutate(P2 = Petal.Length^2)
```

```
## # A tibble: 150 x 6
##    Sepal.Length Sepal.Width Petal.Length Petal.Width Species    P2
##           <dbl>       <dbl>        <dbl>       <dbl> <fct>   <dbl>
##  1          5.1         3.5          1.4         0.2 setosa   1.96
##  2          4.9         3            1.4         0.2 setosa   1.96
##  3          4.7         3.2          1.3         0.2 setosa   1.69
##  4          4.6         3.1          1.5         0.2 setosa   2.25
##  5          5           3.6          1.4         0.2 setosa   1.96
##  6          5.4         3.9          1.7         0.4 setosa   2.89
##  7          4.6         3.4          1.4         0.3 setosa   1.96
##  8          5           3.4          1.5         0.2 setosa   2.25
##  9          4.4         2.9          1.4         0.2 setosa   1.96
## 10          4.9         3.1          1.5         0.1 setosa   2.25
## # … with 140 more rows
```
]
.panel[.panel-name[select()]
.pull-left[

```r
iris |> as_tibble() |> select(Species, Petal.Length)
```

```
## # A tibble: 150 x 2
##    Species Petal.Length
##    <fct>          <dbl>
##  1 setosa           1.4
##  2 setosa           1.4
##  3 setosa           1.3
##  4 setosa           1.5
##  5 setosa           1.4
##  6 setosa           1.7
##  7 setosa           1.4
##  8 setosa           1.5
##  9 setosa           1.4
## 10 setosa           1.5
## # … with 140 more rows
```
]
.pull-right[

```r
iris |> as_tibble() |> select(matches("Length"))
```

```
## # A tibble: 150 x 2
##    Sepal.Length Petal.Length
##           <dbl>        <dbl>
##  1          5.1          1.4
##  2          4.9          1.4
##  3          4.7          1.3
##  4          4.6          1.5
##  5          5            1.4
##  6          5.4          1.7
##  7          4.6          1.4
##  8          5            1.5
##  9          4.4          1.4
## 10          4.9          1.5
## # … with 140 more rows
```
]
]
.panel[.panel-name[rename()]
.pull-left[
.small[

```r
iris |> as_tibble() |> rename(PL = Petal.Length)
```

```
## # A tibble: 150 x 5
##    Sepal.Length Sepal.Width    PL Petal.Width Species
##           <dbl>       <dbl> <dbl>       <dbl> <fct>  
##  1          5.1         3.5   1.4         0.2 setosa 
##  2          4.9         3     1.4         0.2 setosa 
##  3          4.7         3.2   1.3         0.2 setosa 
##  4          4.6         3.1   1.5         0.2 setosa 
##  5          5           3.6   1.4         0.2 setosa 
##  6          5.4         3.9   1.7         0.4 setosa 
##  7          4.6         3.4   1.4         0.3 setosa 
##  8          5           3.4   1.5         0.2 setosa 
##  9          4.4         2.9   1.4         0.2 setosa 
## 10          4.9         3.1   1.5         0.1 setosa 
## # … with 140 more rows
```
]
]
.pull-right[
.small[

```r
iris |> as_tibble() |> 
  rename_with(~str_replace_all(.x, "[(a-z.)]", ""), .cols = matches("(Pet)|(Sep)"))
```

```
## # A tibble: 150 x 5
##       SL    SW    PL    PW Species
##    <dbl> <dbl> <dbl> <dbl> <fct>  
##  1   5.1   3.5   1.4   0.2 setosa 
##  2   4.9   3     1.4   0.2 setosa 
##  3   4.7   3.2   1.3   0.2 setosa 
##  4   4.6   3.1   1.5   0.2 setosa 
##  5   5     3.6   1.4   0.2 setosa 
##  6   5.4   3.9   1.7   0.4 setosa 
##  7   4.6   3.4   1.4   0.3 setosa 
##  8   5     3.4   1.5   0.2 setosa 
##  9   4.4   2.9   1.4   0.2 setosa 
## 10   4.9   3.1   1.5   0.1 setosa 
## # … with 140 more rows
```
…
]
.panel[.panel-name[relocate()]
.pull-left[
.small[

```r
iris |> as_tibble() |> relocate(Species, .before = "Sepal.Length")
```

```
## # A tibble: 150 x 5
##    Species Sepal.Length Sepal.Width Petal.Length Petal.Width
##    <fct>          <dbl>       <dbl>        <dbl>       <dbl>
##  1 setosa           5.1         3.5          1.4         0.2
##  2 setosa           4.9         3            1.4         0.2
##  3 setosa           4.7         3.2          1.3         0.2
##  4 setosa           4.6         3.1          1.5         0.2
##  5 setosa           5           3.6          1.4         0.2
##  6 setosa           5.4         3.9          1.7         0.4
##  7 setosa           4.6         3.4          1.4         0.3
##  8 setosa           5           3.4          1.5         0.2
##  9 setosa           4.4         2.9          1.4         0.2
## 10 setosa           4.9         3.1          1.5         0.1
## # … with 140 more rows
```
]
]

.pull-right[
.small[

```r
iris |> as_tibble() |> relocate(Species, matches("Length"), .before = "Sepal.Length")
```

```
## # A tibble: 150 x 5
##    Species Sepal.Length Petal.Length Sepal.Width Petal.Width
##    <fct>          <dbl>        <dbl>       <dbl>       <dbl>
##  1 setosa           5.1          1.4         3.5         0.2
##  2 setosa           4.9          1.4         3           0.2
##  3 setosa           4.7          1.3         3.2         0.2
##  4 setosa           4.6          1.5         3.1         0.2
##  5 setosa           5            1.4         3.6         0.2
##  6 setosa           5.4          1.7         3.9         0.4
##  7 setosa           4.6          1.4         3.4         0.3
##  8 setosa           5            1.5         3.4         0.2
##  9 setosa           4.4          1.4         2.9         0.2
## 10 setosa           4.9          1.5         3.1         0.1
## # … with 140 more rows
```
…
---

## 行の加工

.panelset[
.panel[.panel-name[filter()]
.pull-left[
.small[

```r
iris |> as_tibble() |> filter(str_detect(Species, "versicolor"))
```

```
## # A tibble: 50 x 5
##    Sepal.Length Sepal.Width Petal.Length Petal.Width Species   
##           <dbl>       <dbl>        <dbl>       <dbl> <fct>     
##  1          7           3.2          4.7         1.4 versicolor
##  2          6.4         3.2          4.5         1.5 versicolor
##  3          6.9         3.1          4.9         1.5 versicolor
##  4          5.5         2.3          4           1.3 versicolor
##  5          6.5         2.8          4.6         1.5 versicolor
##  6          5.7         2.8          4.5         1.3 versicolor
##  7          6.3         3.3          4.7         1.6 versicolor
##  8          4.9         2.4          3.3         1   versicolor
##  9          6.6         2.9          4.6         1.3 versicolor
## 10          5.2         2.7          3.9         1.4 versicolor
## # … with 40 more rows
```
…
```r
iris |> as_tibble() |> distinct(Petal.Length, .keep_all = T)
```

```
## # A tibble: 43 x 5
##    Sepal.Length Sepal.Width Petal.Length Petal.Width Species   
##           <dbl>       <dbl>        <dbl>       <dbl> <fct>     
##  1          5.1         3.5          1.4         0.2 setosa    
##  2          4.7         3.2          1.3         0.2 setosa    
##  3          4.6         3.1          1.5         0.2 setosa    
##  4          5.4         3.9          1.7         0.4 setosa    
##  5          4.8         3.4          1.6         0.2 setosa    
##  6          4.3         3            1.1         0.1 setosa    
##  7          5.8         4            1.2         0.2 setosa    
##  8          4.6         3.6          1           0.2 setosa    
##  9          4.8         3.4          1.9         0.2 setosa    
## 10          7           3.2          4.7         1.4 versicolor
## # … with 33 more rows
```
…
```r
iris |> as_tibble() |> arrange(Sepal.Length)
```

```
## # A tibble: 150 x 5
##    Sepal.Length Sepal.Width Petal.Length Petal.Width Species
##           <dbl>       <dbl>        <dbl>       <dbl> <fct>  
##  1          4.3         3            1.1         0.1 setosa 
##  2          4.4         2.9          1.4         0.2 setosa 
##  3          4.4         3            1.3         0.2 setosa 
##  4          4.4         3.2          1.3         0.2 setosa 
##  5          4.5         2.3          1.3         0.3 setosa 
##  6          4.6         3.1          1.5         0.2 setosa 
##  7          4.6         3.4          1.4         0.3 setosa 
##  8          4.6         3.6          1           0.2 setosa 
##  9          4.6         3.2          1.4         0.2 setosa 
## 10          4.7         3.2          1.3         0.2 setosa 
## # … with 140 more rows
```
]]
.pull-right[
.small[

```r
iris |> as_tibble() |> 
  arrange(desc(Sepal.Length), desc(Sepal.Width))
```

```
## # A tibble: 150 x 5
##    Sepal.Length Sepal.Width Petal.Length Petal.Width Species  
##           <dbl>       <dbl>        <dbl>       <dbl> <fct>    
##  1          7.9         3.8          6.4         2   virginica
##  2          7.7         3.8          6.7         2.2 virginica
##  3          7.7         3            6.1         2.3 virginica
##  4          7.7         2.8          6.7         2   virginica
##  5          7.7         2.6          6.9         2.3 virginica
##  6          7.6         3            6.6         2.1 virginica
##  7          7.4         2.8          6.1         1.9 virginica
##  8          7.3         2.9          6.3         1.8 virginica
##  9          7.2         3.6          6.1         2.5 virginica
## 10          7.2         3.2          6           1.8 virginica
## # … with 140 more rows
```
…
---

## `tibble` のグループ化

.panelset[
.panel[.panel-name[group_by()]
.pull-left[

```r
iris |> as_tibble() |> select(1:3)
```

```
## # A tibble: 150 x 3
##    Sepal.Length Sepal.Width Petal.Length
##           <dbl>       <dbl>        <dbl>
##  1          5.1         3.5          1.4
##  2          4.9         3            1.4
##  3          4.7         3.2          1.3
##  4          4.6         3.1          1.5
##  5          5           3.6          1.4
##  6          5.4         3.9          1.7
##  7          4.6         3.4          1.4
##  8          5           3.4          1.5
##  9          4.4         2.9          1.4
## 10          4.9         3.1          1.5
## # … with 140 more rows
```
]

.pull-right[
.small[

```r
iris |> as_tibble() |> group_by(Species) |> select(1:3)
```

```
## # A tibble: 150 x 4
## # Groups:   Species [3]
##    Species Sepal.Length Sepal.Width Petal.Length
##    <fct>          <dbl>       <dbl>        <dbl>
##  1 setosa           5.1         3.5          1.4
##  2 setosa           4.9         3            1.4
##  3 setosa           4.7         3.2          1.3
##  4 setosa           4.6         3.1          1.5
##  5 setosa           5           3.6          1.4
##  6 setosa           5.4         3.9          1.7
##  7 setosa           4.6         3.4          1.4
##  8 setosa           5           3.4          1.5
##  9 setosa           4.4         2.9          1.4
## 10 setosa           4.9         3.1          1.5
## # … with 140 more rows
```
…
.panel[.panel-name[unnest()]
.small[

```r
iris |> as_tibble() |> group_nest(Species) |> unnest(data)
```

```
## # A tibble: 150 x 5
##    Species Sepal.Length Sepal.Width Petal.Length Petal.Width
##    <fct>          <dbl>       <dbl>        <dbl>       <dbl>
##  1 setosa           5.1         3.5          1.4         0.2
##  2 setosa           4.9         3            1.4         0.2
##  3 setosa           4.7         3.2          1.3         0.2
##  4 setosa           4.6         3.1          1.5         0.2
##  5 setosa           5           3.6          1.4         0.2
##  6 setosa           5.4         3.9          1.7         0.4
##  7 setosa           4.6         3.4          1.4         0.3
##  8 setosa           5           3.4          1.5         0.2
##  9 setosa           4.4         2.9          1.4         0.2
## 10 setosa           4.9         3.1          1.5         0.1
## # … with 140 more rows
```
…
.pull-right[
.small[

```r
relig_income |> as_tibble() |> 
pivot_longer(!religion, names_to = "income", values_to = "count")
```

```
## # A tibble: 180 x 3
##    religion income             count
##    <chr>    <chr>              <dbl>
##  1 Agnostic <$10k                 27
##  2 Agnostic $10-20k               34
##  3 Agnostic $20-30k               60
##  4 Agnostic $30-40k               81
##  5 Agnostic $40-50k               76
##  6 Agnostic $50-75k              137
##  7 Agnostic $75-100k             122
##  8 Agnostic $100-150k            109
##  9 Agnostic >150k                 84
## 10 Agnostic Don't know/refused    96
## # … with 170 more rows
```
]]]

.panel[.panel-name[pivot_longer() 2]
.pull-left[
.small[

```r
billboard |> as_tibble()
```

```
## # A tibble: 317 x 79
##    artist  track  date.entered   wk1   wk2   wk3   wk4   wk5   wk6   wk7   wk8   wk9  wk10  wk11  wk12  wk13  wk14  wk15
##    <chr>   <chr>  <date>       <dbl> <dbl> <dbl> <dbl> <dbl> <dbl> <dbl> <dbl> <dbl> <dbl> <dbl> <dbl> <dbl> <dbl> <dbl>
##  1 2 Pac   Baby … 2000-02-26      87    82    72    77    87    94    99    NA    NA    NA    NA    NA    NA    NA    NA
##  2 2Ge+her The H… 2000-09-02      91    87    92    NA    NA    NA    NA    NA    NA    NA    NA    NA    NA    NA    NA
##  3 3 Door… Krypt… 2000-04-08      81    70    68    67    66    57    54    53    51    51    51    51    47    44    38
##  4 3 Door… Loser  2000-10-21      76    76    72    69    67    65    55    59    62    61    61    59    61    66    72
##  5 504 Bo… Wobbl… 2000-04-15      57    34    25    17    17    31    36    49    53    57    64    70    75    76    78
##  6 98^0    Give … 2000-08-19      51    39    34    26    26    19     2     2     3     6     7    22    29    36    47
##  7 A*Teens Danci… 2000-07-08      97    97    96    95   100    NA    NA    NA    NA    NA    NA    NA    NA    NA    NA
##  8 Aaliyah I Don… 2000-01-29      84    62    51    41    38    35    35    38    38    36    37    37    38    49    61
##  9 Aaliyah Try A… 2000-03-18      59    53    38    28    21    18    16    14    12    10     9     8     6     1     2
## 10 Adams,… Open … 2000-08-26      76    76    74    69    68    67    61    58    57    59    66    68    61    67    59
## # … with 307 more rows, and 61 more variables: wk16 <dbl>, wk17 <dbl>, wk18 <dbl>, wk19 <dbl>, wk20 <dbl>, wk21 <dbl>,
## #   wk22 <dbl>, wk23 <dbl>, wk24 <dbl>, wk25 <dbl>, wk26 <dbl>, wk27 <dbl>, wk28 <dbl>, wk29 <dbl>, wk30 <dbl>,
## #   wk31 <dbl>, wk32 <dbl>, wk33 <dbl>, wk34 <dbl>, wk35 <dbl>, wk36 <dbl>, wk37 <dbl>, wk38 <dbl>, wk39 <dbl>,
## #   wk40 <dbl>, wk41 <dbl>, wk42 <dbl>, wk43 <dbl>, wk44 <dbl>, wk45 <dbl>, wk46 <dbl>, wk47 <dbl>, wk48 <dbl>,
## #   wk49 <dbl>, wk50 <dbl>, wk51 <dbl>, wk52 <dbl>, wk53 <dbl>, wk54 <dbl>, wk55 <dbl>, wk56 <dbl>, wk57 <dbl>,
## #   wk58 <dbl>, wk59 <dbl>, wk60 <dbl>, wk61 <dbl>, wk62 <dbl>, wk63 <dbl>, wk64 <dbl>, wk65 <dbl>, wk66 <lgl>,
## #   wk67 <lgl>, wk68 <lgl>, wk69 <lgl>, wk70 <lgl>, wk71 <lgl>, wk72 <lgl>, wk73 <lgl>, wk74 <lgl>, wk75 <lgl>,
## #   wk76 <lgl>
```
]]
.pull-right[
.small[

```r
billboard |> as_tibble() |> 
  pivot_longer(col = starts_with("wk"),
               names_to = "week", names_prefix = "wk",
               values_to = "rank", values_drop_na = TRUE)
```

```
## # A tibble: 5,307 x 5
##    artist  track                   date.entered week   rank
##    <chr>   <chr>                   <date>       <chr> <dbl>
##  1 2 Pac   Baby Don't Cry (Keep... 2000-02-26   1        87
##  2 2 Pac   Baby Don't Cry (Keep... 2000-02-26   2        82
##  3 2 Pac   Baby Don't Cry (Keep... 2000-02-26   3        72
##  4 2 Pac   Baby Don't Cry (Keep... 2000-02-26   4        77
##  5 2 Pac   Baby Don't Cry (Keep... 2000-02-26   5        87
##  6 2 Pac   Baby Don't Cry (Keep... 2000-02-26   6        94
##  7 2 Pac   Baby Don't Cry (Keep... 2000-02-26   7        99
##  8 2Ge+her The Hardest Part Of ... 2000-09-02   1        91
##  9 2Ge+her The Hardest Part Of ... 2000-09-02   2        87
## 10 2Ge+her The Hardest Part Of ... 2000-09-02   3        92
## # … with 5,297 more rows
```
]]]

.panel[.panel-name[pivot_longer() 3]
.pull-left[
.small[

```r
who |> as_tibble()
```

```
## # A tibble: 7,240 x 60
##    country     iso2  iso3   year new_sp_m014 new_sp_m1524 new_sp_m2534 new_sp_m3544 new_sp_m4554 new_sp_m5564 new_sp_m65
##    <chr>       <chr> <chr> <int>       <int>        <int>        <int>        <int>        <int>        <int>      <int>
##  1 Afghanistan AF    AFG    1980          NA           NA           NA           NA           NA           NA         NA
##  2 Afghanistan AF    AFG    1981          NA           NA           NA           NA           NA           NA         NA
##  3 Afghanistan AF    AFG    1982          NA           NA           NA           NA           NA           NA         NA
##  4 Afghanistan AF    AFG    1983          NA           NA           NA           NA           NA           NA         NA
##  5 Afghanistan AF    AFG    1984          NA           NA           NA           NA           NA           NA         NA
##  6 Afghanistan AF    AFG    1985          NA           NA           NA           NA           NA           NA         NA
##  7 Afghanistan AF    AFG    1986          NA           NA           NA           NA           NA           NA         NA
##  8 Afghanistan AF    AFG    1987          NA           NA           NA           NA           NA           NA         NA
##  9 Afghanistan AF    AFG    1988          NA           NA           NA           NA           NA           NA         NA
## 10 Afghanistan AF    AFG    1989          NA           NA           NA           NA           NA           NA         NA
## # … with 7,230 more rows, and 49 more variables: new_sp_f014 <int>, new_sp_f1524 <int>, new_sp_f2534 <int>,
## #   new_sp_f3544 <int>, new_sp_f4554 <int>, new_sp_f5564 <int>, new_sp_f65 <int>, new_sn_m014 <int>,
## #   new_sn_m1524 <int>, new_sn_m2534 <int>, new_sn_m3544 <int>, new_sn_m4554 <int>, new_sn_m5564 <int>,
## #   new_sn_m65 <int>, new_sn_f014 <int>, new_sn_f1524 <int>, new_sn_f2534 <int>, new_sn_f3544 <int>,
## #   new_sn_f4554 <int>, new_sn_f5564 <int>, new_sn_f65 <int>, new_ep_m014 <int>, new_ep_m1524 <int>,
## #   new_ep_m2534 <int>, new_ep_m3544 <int>, new_ep_m4554 <int>, new_ep_m5564 <int>, new_ep_m65 <int>,
## #   new_ep_f014 <int>, new_ep_f1524 <int>, new_ep_f2534 <int>, new_ep_f3544 <int>, new_ep_f4554 <int>,
## #   new_ep_f5564 <int>, new_ep_f65 <int>, newrel_m014 <int>, newrel_m1524 <int>, newrel_m2534 <int>,
## #   newrel_m3544 <int>, newrel_m4554 <int>, newrel_m5564 <int>, newrel_m65 <int>, newrel_f014 <int>,
…
